{
  "project_info": {
    "project_number": "786837319070",
    "firebase_url": "https://seedbasket-6b51a.firebaseio.com",
    "project_id": "seedbasket-6b51a",
    "storage_bucket": "seedbasket-6b51a.appspot.com"
  },
  "client": [
    {
      "client_info": {
        "mobilesdk_app_id": "1:786837319070:android:210793087c2af456f7ba8f",
        "android_client_info": {
          "package_name": "com.Innasoft.SeedBasket"
        }
      },
      "oauth_client": [
        {
          "client_id": "786837319070-d20r9s32n7kd5g6auq7uf9auemb4qddt.apps.googleusercontent.com",
          "client_type": 1,
          "android_info": {
            "package_name": "com.Innasoft.SeedBasket",
            "certificate_hash": "c2db582a5d611cced7f79b1fbae99c09ef563115"
          }
        },
        {
          "client_id": "786837319070-hh8vbi8h9eernic474r845d0dk3iqh8g.apps.googleusercontent.com",
          "client_type": 3
        }
      ],
      "api_key": [
        {
          "current_key": "AIzaSyCB3QUHxdmI_p_7vFsdaje4P0_RAl6zIzk"
        }
      ],
      "services": {
        "appinvite_service": {
          "other_platform_oauth_client": [
            {
              "client_id": "786837319070-hh8vbi8h9eernic474r845d0dk3iqh8g.apps.googleusercontent.com",
              "client_type": 3
            }
          ]
        }
      }
    },
    {
      "client_info": {
        "mobilesdk_app_id": "1:786837319070:android:e83fb074adf21698f7ba8f",
        "android_client_info": {
          "package_name": "com.innasoft.seedbasketadmin"
        }
      },
      "oauth_client": [
        {
          "client_id": "786837319070-hh8vbi8h9eernic474r845d0dk3iqh8g.apps.googleusercontent.com",
          "client_type": 3
        }
      ],
      "api_key": [
        {
          "current_key": "AIzaSyCB3QUHxdmI_p_7vFsdaje4P0_RAl6zIzk"
        }
      ],
      "services": {
        "appinvite_service": {
          "other_platform_oauth_client": [
            {
              "client_id": "786837319070-hh8vbi8h9eernic474r845d0dk3iqh8g.apps.googleusercontent.com",
              "client_type": 3
            }
          ]
        }
      }
    }
  ],
  "configuration_version": "1"
}